…
## 数据筛选 filter，返回满足条件的观测值

```r
# 看 2009-10-15 日的数据
filter(order, orderdate == '2009-10-13')
#> # A tibble: 19 x 11
#>   orderid customerid campaignid  orderdate         city state zipcode
#>     <int>      <int>      <int>     <date>        <chr> <chr>   <chr>
#> 1 1002854      45978       2141 2009-10-13       NEWTON    MA   02459
#> 2 1002855     125381       2173 2009-10-13 NEW ROCHELLE    NY   10804
#> 3 1002442     112970       2173 2009-10-13     BRANFORD    CT   06405
#> 4 1002471     125377       2173 2009-10-13 VALLEY FORGE    PA   19482
#> 5 1002472     133164       2173 2009-10-13   FORT WORTH    TX   76107
#> 6 1003224     129708       2173 2009-10-13  CERRO GORDO    NC   28430
#> # ... with 13 more rows, and 4 more variables: paymenttype <chr>,
#> #   totalprice <dbl>, numorderlines <int>, numunits <int>
…
